<svg xmlns="http://www.w3.org/2000/svg" width="21.8" height="15.2" viewBox="0 0 21.8 15.2">
  <g id="menu" transform="translate(1 -0.1)">
    <path id="Path" d="M0,.55H19.8" transform="translate(0 7.15)" fill="none" stroke="#fff" stroke-linecap="round" stroke-linejoin="round" stroke-miterlimit="10" stroke-width="2"/>
    <path id="Path-2" data-name="Path" d="M0,.55H19.8" transform="translate(0 0.55)" fill="none" stroke="#fff" stroke-linecap="round" stroke-linejoin="round" stroke-miterlimit="10" stroke-width="2"/>
    <path id="Path-3" data-name="Path" d="M0,.55H19.8" transform="translate(0 13.75)" fill="none" stroke="#fff" stroke-linecap="round" stroke-linejoin="round" stroke-miterlimit="10" stroke-width="2"/>
  </g>
</svg>
